{
  "videoid" : "none",
  "gfeedback" : {
    "e" : "23744176,23803853,23804281,23827263,23836260,23837036,23837040,23837993,23839597,23842986,23847143,23848795,23850451,23853886,23856652,23857947,23857998,23859802,23859863,23860859,23861041,23863598,23866486,39786092,39787351,9449243,9488222",
    "logged_in" : "0"
  },
  "player" : "none",
  "client" : {
    "cmodel" : "iPhone9,3",
    "cosver" : "13.3.0.17C54",
    "cver" : "14.50.7",
    "cbr" : "com.google.ios.youtube"
  },
  "cpn" : "none",
  "date" : "2019-12-29 23:17:37 +0000"
}