## Beep boop. Your images are optimized!

Your image file size has been reduced!

<details>
<summary>
Details
</summary>

| File | Before | After | Percent reduction |
|:--|:--|:--|:--|
| /aspnetcore/azure/devops/media/cover.svg | 265.74kb | 244.82kb | 7.87% |
| /aspnetcore/blazor/common/samples/3.x/BlazorSample/wwwroot/css/open-iconic/font/fonts/open-iconic.svg | 53.50kb | 50.63kb | 5.37% |
| /aspnetcore/security/cookie-sharing/sample/CookieAuthWithIdentity.NETFramework/CookieAuthWithIdentity.NETFramework/fonts/glyphicons-halflings-regular.svg | 61.68kb | 59.82kb | 3.01% |
| /aspnetcore/security/authentication/identity-configuration/sample/wwwroot/lib/bootstrap/dist/fonts/glyphicons-halflings-regular.svg | 106.19kb | 103.92kb | 2.14% |
| /aspnetcore/security/authentication/social/additional-claims/samples/2.x/AdditionalClaimsSample/wwwroot/lib/bootstrap/dist/fonts/glyphicons-halflings-regular.svg | 106.19kb | 103.92kb | 2.14% |
| /aspnetcore/security/gdpr/sample/RP/wwwroot/lib/bootstrap/dist/fonts/glyphicons-halflings-regular.svg | 106.19kb | 103.92kb | 2.14% |
| /aspnetcore/mvc/views/partial/sample/PartialViewsSample/wwwroot/lib/bootstrap/dist/fonts/glyphicons-halflings-regular.svg | 106.19kb | 103.92kb | 2.14% |
| /aspnetcore/data/ef-rp/intro/samples/cu/wwwroot/lib/bootstrap/dist/fonts/glyphicons-halflings-regular.svg | 106.19kb | 103.92kb | 2.14% |
| /aspnetcore/security/cookie-sharing/sample/CookieAuth.Core/wwwroot/lib/bootstrap/dist/fonts/glyphicons-halflings-regular.svg | 106.19kb | 103.92kb | 2.14% |
| /aspnetcore/security/authentication/cookie/samples/2.x/CookieSample/wwwroot/lib/bootstrap/dist/fonts/glyphicons-halflings-regular.svg | 106.19kb | 103.92kb | 2.14% |
| /aspnetcore/data/ef-rp/intro/samples/21StageSnapShots/Part-5/wwwroot/lib/bootstrap/dist/fonts/glyphicons-halflings-regular.svg | 106.19kb | 103.92kb | 2.14% |
| /aspnetcore/mvc/views/tag-helpers/th-components/samples/RazorPagesSample/wwwroot/lib/bootstrap/fonts/glyphicons-halflings-regular.svg | 106.19kb | 103.92kb | 2.14% |
| /aspnetcore/test/razor-pages-tests/samples/2.x/src/RazorPagesTestSample/wwwroot/lib/bootstrap/dist/fonts/glyphicons-halflings-regular.svg | 106.19kb | 103.92kb | 2.14% |
| /aspnetcore/performance/caching/memory/sample/RPcache/wwwroot/lib/bootstrap/dist/fonts/glyphicons-halflings-regular.svg | 106.19kb | 103.92kb | 2.14% |
| /aspnetcore/fundamentals/middleware/extensibility-third-party-container/sample/wwwroot/lib/bootstrap/dist/fonts/glyphicons-halflings-regular.svg | 106.19kb | 103.92kb | 2.14% |
| /aspnetcore/data/ef-rp/intro/samples/cu21/wwwroot/lib/bootstrap/dist/fonts/glyphicons-halflings-regular.svg | 106.19kb | 103.92kb | 2.14% |
| /aspnetcore/security/cookie-sharing/sample/CookieAuthWithIdentity.Core/wwwroot/lib/bootstrap/dist/fonts/glyphicons-halflings-regular.svg | 106.19kb | 103.92kb | 2.14% |
| /aspnetcore/security/authentication/accconfirm/sample/WebPWrecover21/wwwroot/lib/bootstrap/dist/fonts/glyphicons-halflings-regular.svg | 106.19kb | 103.92kb | 2.14% |
| /aspnetcore/razor-pages/upload-files/samples/1.x/RazorPagesMovie/wwwroot/lib/bootstrap/fonts/glyphicons-halflings-regular.svg | 106.19kb | 103.92kb | 2.14% |
| /aspnetcore/security/anti-request-forgery/sample/MvcSample/wwwroot/lib/bootstrap/dist/fonts/glyphicons-halflings-regular.svg | 106.19kb | 103.92kb | 2.14% |
| /aspnetcore/security/authentication/add-user-data/sample-2.1/wwwroot/lib/bootstrap/dist/fonts/glyphicons-halflings-regular.svg | 106.19kb | 103.92kb | 2.14% |
| /aspnetcore/security/authorization/secure-data/samples/final2.1/wwwroot/lib/bootstrap/dist/fonts/glyphicons-halflings-regular.svg | 106.19kb | 103.92kb | 2.14% |
| /aspnetcore/razor-pages/filter/sample/PageFilter/wwwroot/lib/bootstrap/dist/fonts/glyphicons-halflings-regular.svg | 106.19kb | 103.92kb | 2.14% |
| /aspnetcore/security/authorization/secure-data/samples/starter/wwwroot/lib/bootstrap/fonts/glyphicons-halflings-regular.svg | 106.19kb | 103.92kb | 2.14% |
| /aspnetcore/security/authorization/secure-data/samples/starter/wwwroot/lib/bootstrap/dist/fonts/glyphicons-halflings-regular.svg | 106.19kb | 103.92kb | 2.14% |
| /aspnetcore/tutorials/razor-pages/razor-pages-start/sample/RazorPagesMovie/wwwroot/lib/bootstrap/fonts/glyphicons-halflings-regular.svg | 106.19kb | 103.92kb | 2.14% |
| /aspnetcore/fundamentals/change-tokens/sample/wwwroot/lib/bootstrap/dist/fonts/glyphicons-halflings-regular.svg | 106.19kb | 103.92kb | 2.14% |
| /aspnetcore/fundamentals/dependency-injection/samples/1.x/DependencyInjectionSample/wwwroot/lib/bootstrap/dist/fonts/glyphicons-halflings-regular.svg | 106.19kb | 103.92kb | 2.14% |
| /aspnetcore/security/authorization/secure-data/samples/starter2/wwwroot/lib/bootstrap/dist/fonts/glyphicons-halflings-regular.svg | 106.19kb | 103.92kb | 2.14% |
| /aspnetcore/data/ef-rp/intro/samples/cu/wwwroot/lib/bootstrap/fonts/glyphicons-halflings-regular.svg | 106.19kb | 103.92kb | 2.14% |
| /aspnetcore/razor-pages/ui-class/samples/cli/WebApp1/wwwroot/lib/bootstrap/dist/fonts/glyphicons-halflings-regular.svg | 106.19kb | 103.92kb | 2.14% |
| /aspnetcore/security/authorization/secure-data/samples/final2/wwwroot/lib/bootstrap/dist/fonts/glyphicons-halflings-regular.svg | 106.19kb | 103.92kb | 2.14% |
| /aspnetcore/includes/RP/code/wwwroot/lib/bootstrap/dist/fonts/glyphicons-halflings-regular.svg | 106.19kb | 103.92kb | 2.14% |
| /aspnetcore/signalr/dotnet-client/sample/SignalRChat/wwwroot/lib/bootstrap/dist/fonts/glyphicons-halflings-regular.svg | 106.19kb | 103.92kb | 2.14% |
| /aspnetcore/razor-pages/upload-files/samples/2.x/RazorPagesMovie/wwwroot/lib/bootstrap/dist/fonts/glyphicons-halflings-regular.svg | 106.19kb | 103.92kb | 2.14% |
| /aspnetcore/security/authorization/secure-data/samples/starter2.1/wwwroot/lib/bootstrap/dist/fonts/glyphicons-halflings-regular.svg | 106.19kb | 103.92kb | 2.14% |
| /aspnetcore/signalr/hubcontext/sample/wwwroot/lib/bootstrap/dist/fonts/glyphicons-halflings-regular.svg | 106.19kb | 103.92kb | 2.14% |
| /aspnetcore/fundamentals/host/hosted-services/samples/2.x/BackgroundTasksSample-WebHost/wwwroot/lib/bootstrap/dist/fonts/glyphicons-halflings-regular.svg | 106.19kb | 103.92kb | 2.14% |
| /aspnetcore/signalr/authn-and-authz/sample/wwwroot/lib/bootstrap/dist/fonts/glyphicons-halflings-regular.svg | 106.19kb | 103.92kb | 2.14% |
| /aspnetcore/razor-pages/upload-files/samples/1.x/RazorPagesMovie/wwwroot/lib/bootstrap/dist/fonts/glyphicons-halflings-regular.svg | 106.19kb | 103.92kb | 2.14% |
| /aspnetcore/fundamentals/host/platform-specific-configuration/samples/2.x/HostingStartupApp/wwwroot/lib/bootstrap/dist/fonts/glyphicons-halflings-regular.svg | 106.19kb | 103.92kb | 2.14% |
| /aspnetcore/security/anti-request-forgery/sample/MvcSample/wwwroot/lib/bootstrap/fonts/glyphicons-halflings-regular.svg | 106.19kb | 103.92kb | 2.14% |
| /aspnetcore/razor-pages/razor-pages-conventions/samples/2.x/SampleApp/wwwroot/lib/bootstrap/dist/fonts/glyphicons-halflings-regular.svg | 106.19kb | 103.92kb | 2.14% |
| /aspnetcore/fundamentals/logging/index/samples/2.x/TodoApiSample/wwwroot/lib/bootstrap/dist/fonts/glyphicons-halflings-regular.svg | 106.19kb | 103.92kb | 2.14% |
| /aspnetcore/performance/caching/middleware/samples/2.x/ResponseCachingMiddleware/wwwroot/lib/bootstrap/dist/fonts/glyphicons-halflings-regular.svg | 106.19kb | 103.92kb | 2.14% |
| /aspnetcore/tutorials/razor-pages/razor-pages-start/sample/RazorPagesMovie/wwwroot/lib/bootstrap/dist/fonts/glyphicons-halflings-regular.svg | 106.19kb | 103.92kb | 2.14% |
| /aspnetcore/host-and-deploy/docker/visual-studio-tools-for-docker/samples/2.0/HelloDockerTools/wwwroot/lib/bootstrap/dist/fonts/glyphicons-halflings-regular.svg | 106.19kb | 103.92kb | 2.14% |
| /aspnetcore/tutorials/razor-pages/razor-pages-start/sample/RazorPagesMovie21/wwwroot/lib/bootstrap/dist/fonts/glyphicons-halflings-regular.svg | 106.19kb | 103.92kb | 2.14% |
| /aspnetcore/host-and-deploy/docker/visual-studio-tools-for-docker/samples/2.1/HelloDockerTools/wwwroot/lib/bootstrap/dist/fonts/glyphicons-halflings-regular.svg | 106.19kb | 103.92kb | 2.14% |
| /aspnetcore/tutorials/first-mvc-app/start-mvc/sample/MvcMovie21/wwwroot/lib/bootstrap/dist/fonts/glyphicons-halflings-regular.svg | 106.19kb | 103.92kb | 2.14% |
| /aspnetcore/data/ef-rp/intro/samples/21StageSnapShots/Part-3-Sorting/wwwroot/lib/bootstrap/dist/fonts/glyphicons-halflings-regular.svg | 106.19kb | 103.92kb | 2.14% |
| /aspnetcore/data/ef-rp/intro/samples/21StageSnapShots/Part-4-Migrations/wwwroot/lib/bootstrap/dist/fonts/glyphicons-halflings-regular.svg | 106.19kb | 103.92kb | 2.14% |
| /aspnetcore/tutorials/signalr/sample/wwwroot/lib/bootstrap/dist/fonts/glyphicons-halflings-regular.svg | 106.19kb | 103.92kb | 2.14% |
| /aspnetcore/security/authentication/identity-configuration/sample/wwwroot/images/banner2.svg | 8.20kb | 8.20kb | 0.04% |
| /aspnetcore/security/authentication/identity-configuration/sample/wwwroot/images/banner1.svg | 9.46kb | 9.45kb | 0.03% |
| /aspnetcore/security/authentication/identity-configuration/sample/wwwroot/images/banner3.svg | 12.01kb | 12.00kb | 0.02% |
| /aspnetcore/includes/RP/code/wwwroot/images/banner3.svg | 10.62kb | 10.62kb | 0.02% |
| /aspnetcore/signalr/authn-and-authz/sample/wwwroot/images/banner3.svg | 10.62kb | 10.62kb | 0.02% |
| /aspnetcore/security/cookie-sharing/sample/CookieAuth.Core/wwwroot/images/banner3.svg | 10.62kb | 10.62kb | 0.02% |
| /aspnetcore/security/authorization/secure-data/samples/final2/wwwroot/images/banner3.svg | 10.62kb | 10.62kb | 0.02% |
| /aspnetcore/security/authorization/resourcebased/samples/ResourceBasedAuthApp2/wwwroot/images/banner3.svg | 10.62kb | 10.62kb | 0.02% |
| /aspnetcore/razor-pages/upload-files/samples/1.x/RazorPagesMovie/wwwroot/images/banner3.svg | 10.62kb | 10.62kb | 0.02% |
| /aspnetcore/fundamentals/static-files/samples/1x/wwwroot/images/banner3.svg | 10.62kb | 10.62kb | 0.02% |
| /aspnetcore/fundamentals/localization/sample/POLocalization/wwwroot/images/banner3.svg | 10.62kb | 10.62kb | 0.02% |
| /aspnetcore/security/authentication/identity/sample/src/ASPNETCore-IdentityDemoComplete/IdentityDemo/wwwroot/images/banner3.svg | 10.62kb | 10.62kb | 0.02% |
| /aspnetcore/data/ef-mvc/intro/samples/cu/wwwroot/images/banner3.svg | 10.62kb | 10.62kb | 0.02% |
| /aspnetcore/security/authorization/secure-data/samples/starter2/wwwroot/images/banner3.svg | 10.62kb | 10.62kb | 0.02% |
| /aspnetcore/security/authorization/resourcebased/samples/ResourceBasedAuthApp1/wwwroot/images/banner3.svg | 10.62kb | 10.62kb | 0.02% |
| /aspnetcore/signalr/javascript-client/sample/wwwroot/images/banner3.svg | 10.62kb | 10.62kb | 0.02% |
| /aspnetcore/razor-pages/razor-pages-conventions/samples/2.x/SampleApp/wwwroot/images/banner3.svg | 10.62kb | 10.62kb | 0.02% |
| /aspnetcore/security/authentication/social/additional-claims/samples/2.x/AdditionalClaimsSample/wwwroot/images/banner3.svg | 10.62kb | 10.62kb | 0.02% |
| /aspnetcore/tutorials/razor-pages/razor-pages-start/sample/RazorPagesMovie/wwwroot/images/banner3.svg | 10.62kb | 10.62kb | 0.02% |
| /aspnetcore/security/authentication/cookie/samples/2.x/CookieSample/wwwroot/images/banner3.svg | 10.62kb | 10.62kb | 0.02% |
| /aspnetcore/data/entity-framework-6/sample/MVCCore/wwwroot/images/banner3.svg | 10.62kb | 10.62kb | 0.02% |
| /aspnetcore/client-side/bundling-and-minification/samples/BuildBundlerMinifierApp/wwwroot/images/banner3.svg | 10.62kb | 10.62kb | 0.02% |
| /aspnetcore/host-and-deploy/docker/visual-studio-tools-for-docker/samples/2.0/HelloDockerTools/wwwroot/images/banner3.svg | 10.62kb | 10.62kb | 0.02% |
| | | | |
| **Total :** | **5,932.40kb** | **5,793.12kb** | **2.35%** |
</details>

---

[📝docs](https://imgbot.net/docs) | [:octocat: repo](https://github.com/dabutvin/ImgBot) | [🙋issues](https://github.com/dabutvin/ImgBot/issues) | [🏅swag](https://goo.gl/forms/1GX7wlhGEX8nkhGO2) | [🏪marketplace](https://github.com/marketplace/imgbot)